<svg width="80" height="80" viewBox="0 0 80 80" fill="none" xmlns="http://www.w3.org/2000/svg">
<path d="M50 60L30 40L50 20" stroke="#DF1E36" stroke-width="4" stroke-linecap="round" stroke-linejoin="round"/>
</svg>
