<svg width="80" height="80" viewBox="0 0 80 80" fill="none" xmlns="http://www.w3.org/2000/svg">
<path d="M30 60L50 40L30 20" stroke="#DF1E36" stroke-width="4" stroke-linecap="round" stroke-linejoin="round"/>
</svg>
